^C:\USERS\ВИКТОР\УЧЕБА\TEAM_10\DISCRETE_MATH\DISCRETE_MATH\MUL_ZZ_Z.CPP
/c /ZI /JMC /nologo /W3 /WX- /diagnostics:classic /sdl /Od /Oy- /D WIN32 /D _DEBUG /D _CONSOLE /D _UNICODE /D UNICODE /Gm- /EHsc /RTC1 /MDd /GS /fp:precise /permissive- /Zc:wchar_t /Zc:forScope /Zc:inline /Fo"DEBUG\\" /Fd"DEBUG\VC141.PDB" /Gd /TP /analyze- /FC C:\USERS\ВИКТОР\УЧЕБА\TEAM_10\DISCRETE_MATH\DISCRETE_MATH\MUL_ZZ_Z.CPP
^C:\USERS\ВИКТОР\УЧЕБА\TEAM_10\DISCRETE_MATH\DISCRETE_MATH\NZER_N_B.CPP
/c /ZI /JMC /nologo /W3 /WX- /diagnostics:classic /sdl /Od /Oy- /D WIN32 /D _DEBUG /D _CONSOLE /D _UNICODE /D UNICODE /Gm- /EHsc /RTC1 /MDd /GS /fp:precise /permissive- /Zc:wchar_t /Zc:forScope /Zc:inline /Fo"DEBUG\\" /Fd"DEBUG\VC141.PDB" /Gd /TP /analyze- /FC C:\USERS\ВИКТОР\УЧЕБА\TEAM_10\DISCRETE_MATH\DISCRETE_MATH\NZER_N_B.CPP
^C:\USERS\ВИКТОР\УЧЕБА\TEAM_10\DISCRETE_MATH\DISCRETE_MATH\SUB_ZZ_Z.CPP
/c /ZI /JMC /nologo /W3 /WX- /diagnostics:classic /sdl /Od /Oy- /D WIN32 /D _DEBUG /D _CONSOLE /D _UNICODE /D UNICODE /Gm- /EHsc /RTC1 /MDd /GS /fp:precise /permissive- /Zc:wchar_t /Zc:forScope /Zc:inline /Fo"DEBUG\\" /Fd"DEBUG\VC141.PDB" /Gd /TP /analyze- /FC C:\USERS\ВИКТОР\УЧЕБА\TEAM_10\DISCRETE_MATH\DISCRETE_MATH\SUB_ZZ_Z.CPP
^C:\USERS\ВИКТОР\УЧЕБА\TEAM_10\DISCRETE_MATH\DISCRETE_MATH\COM_NN_D.CPP
/c /ZI /JMC /nologo /W3 /WX- /diagnostics:classic /sdl /Od /Oy- /D WIN32 /D _DEBUG /D _CONSOLE /D _UNICODE /D UNICODE /Gm- /EHsc /RTC1 /MDd /GS /fp:precise /permissive- /Zc:wchar_t /Zc:forScope /Zc:inline /Fo"DEBUG\\" /Fd"DEBUG\VC141.PDB" /Gd /TP /analyze- /FC C:\USERS\ВИКТОР\УЧЕБА\TEAM_10\DISCRETE_MATH\DISCRETE_MATH\COM_NN_D.CPP
^C:\USERS\ВИКТОР\УЧЕБА\TEAM_10\DISCRETE_MATH\DISCRETE_MATH\ADD_NN_N.CPP
/c /ZI /JMC /nologo /W3 /WX- /diagnostics:classic /sdl /Od /Oy- /D WIN32 /D _DEBUG /D _CONSOLE /D _UNICODE /D UNICODE /Gm- /EHsc /RTC1 /MDd /GS /fp:precise /permissive- /Zc:wchar_t /Zc:forScope /Zc:inline /Fo"DEBUG\\" /Fd"DEBUG\VC141.PDB" /Gd /TP /analyze- /FC C:\USERS\ВИКТОР\УЧЕБА\TEAM_10\DISCRETE_MATH\DISCRETE_MATH\ADD_NN_N.CPP
^C:\USERS\ВИКТОР\УЧЕБА\TEAM_10\DISCRETE_MATH\DISCRETE_MATH\DIV_NN_N.CPP
/c /ZI /JMC /nologo /W3 /WX- /diagnostics:classic /sdl /Od /Oy- /D WIN32 /D _DEBUG /D _CONSOLE /D _UNICODE /D UNICODE /Gm- /EHsc /RTC1 /MDd /GS /fp:precise /permissive- /Zc:wchar_t /Zc:forScope /Zc:inline /Fo"DEBUG\\" /Fd"DEBUG\VC141.PDB" /Gd /TP /analyze- /FC C:\USERS\ВИКТОР\УЧЕБА\TEAM_10\DISCRETE_MATH\DISCRETE_MATH\DIV_NN_N.CPP
^C:\USERS\ВИКТОР\УЧЕБА\TEAM_10\DISCRETE_MATH\DISCRETE_MATH\LCM_NN_N.CPP
/c /ZI /JMC /nologo /W3 /WX- /diagnostics:classic /sdl /Od /Oy- /D WIN32 /D _DEBUG /D _CONSOLE /D _UNICODE /D UNICODE /Gm- /EHsc /RTC1 /MDd /GS /fp:precise /permissive- /Zc:wchar_t /Zc:forScope /Zc:inline /Fo"DEBUG\\" /Fd"DEBUG\VC141.PDB" /Gd /TP /analyze- /FC C:\USERS\ВИКТОР\УЧЕБА\TEAM_10\DISCRETE_MATH\DISCRETE_MATH\LCM_NN_N.CPP
^C:\USERS\ВИКТОР\УЧЕБА\TEAM_10\DISCRETE_MATH\DISCRETE_MATH\MOD_NN_N.CPP
/c /ZI /JMC /nologo /W3 /WX- /diagnostics:classic /sdl /Od /Oy- /D WIN32 /D _DEBUG /D _CONSOLE /D _UNICODE /D UNICODE /Gm- /EHsc /RTC1 /MDd /GS /fp:precise /permissive- /Zc:wchar_t /Zc:forScope /Zc:inline /Fo"DEBUG\\" /Fd"DEBUG\VC141.PDB" /Gd /TP /analyze- /FC C:\USERS\ВИКТОР\УЧЕБА\TEAM_10\DISCRETE_MATH\DISCRETE_MATH\MOD_NN_N.CPP
^C:\USERS\ВИКТОР\УЧЕБА\TEAM_10\DISCRETE_MATH\DISCRETE_MATH\MUL_ND_N.CPP
/c /ZI /JMC /nologo /W3 /WX- /diagnostics:classic /sdl /Od /Oy- /D WIN32 /D _DEBUG /D _CONSOLE /D _UNICODE /D UNICODE /Gm- /EHsc /RTC1 /MDd /GS /fp:precise /permissive- /Zc:wchar_t /Zc:forScope /Zc:inline /Fo"DEBUG\\" /Fd"DEBUG\VC141.PDB" /Gd /TP /analyze- /FC C:\USERS\ВИКТОР\УЧЕБА\TEAM_10\DISCRETE_MATH\DISCRETE_MATH\MUL_ND_N.CPP
^C:\USERS\ВИКТОР\УЧЕБА\TEAM_10\DISCRETE_MATH\DISCRETE_MATH\MUL_NN_N.CPP
/c /ZI /JMC /nologo /W3 /WX- /diagnostics:classic /sdl /Od /Oy- /D WIN32 /D _DEBUG /D _CONSOLE /D _UNICODE /D UNICODE /Gm- /EHsc /RTC1 /MDd /GS /fp:precise /permissive- /Zc:wchar_t /Zc:forScope /Zc:inline /Fo"DEBUG\\" /Fd"DEBUG\VC141.PDB" /Gd /TP /analyze- /FC C:\USERS\ВИКТОР\УЧЕБА\TEAM_10\DISCRETE_MATH\DISCRETE_MATH\MUL_NN_N.CPP
^C:\USERS\ВИКТОР\УЧЕБА\TEAM_10\DISCRETE_MATH\DISCRETE_MATH\SUB_NDN_N.CPP
/c /ZI /JMC /nologo /W3 /WX- /diagnostics:classic /sdl /Od /Oy- /D WIN32 /D _DEBUG /D _CONSOLE /D _UNICODE /D UNICODE /Gm- /EHsc /RTC1 /MDd /GS /fp:precise /permissive- /Zc:wchar_t /Zc:forScope /Zc:inline /Fo"DEBUG\\" /Fd"DEBUG\VC141.PDB" /Gd /TP /analyze- /FC C:\USERS\ВИКТОР\УЧЕБА\TEAM_10\DISCRETE_MATH\DISCRETE_MATH\SUB_NDN_N.CPP
^C:\USERS\ВИКТОР\УЧЕБА\TEAM_10\DISCRETE_MATH\DISCRETE_MATH\SUB_NN_N.CPP
/c /ZI /JMC /nologo /W3 /WX- /diagnostics:classic /sdl /Od /Oy- /D WIN32 /D _DEBUG /D _CONSOLE /D _UNICODE /D UNICODE /Gm- /EHsc /RTC1 /MDd /GS /fp:precise /permissive- /Zc:wchar_t /Zc:forScope /Zc:inline /Fo"DEBUG\\" /Fd"DEBUG\VC141.PDB" /Gd /TP /analyze- /FC C:\USERS\ВИКТОР\УЧЕБА\TEAM_10\DISCRETE_MATH\DISCRETE_MATH\SUB_NN_N.CPP
^C:\USERS\ВИКТОР\УЧЕБА\TEAM_10\DISCRETE_MATH\DISCRETE_MATH\ADD_1N_N.CPP
/c /ZI /JMC /nologo /W3 /WX- /diagnostics:classic /sdl /Od /Oy- /D WIN32 /D _DEBUG /D _CONSOLE /D _UNICODE /D UNICODE /Gm- /EHsc /RTC1 /MDd /GS /fp:precise /permissive- /Zc:wchar_t /Zc:forScope /Zc:inline /Fo"DEBUG\\" /Fd"DEBUG\VC141.PDB" /Gd /TP /analyze- /FC C:\USERS\ВИКТОР\УЧЕБА\TEAM_10\DISCRETE_MATH\DISCRETE_MATH\ADD_1N_N.CPP
^C:\USERS\ВИКТОР\УЧЕБА\TEAM_10\DISCRETE_MATH\DISCRETE_MATH\GCF_NN_N.CPP
/c /ZI /JMC /nologo /W3 /WX- /diagnostics:classic /sdl /Od /Oy- /D WIN32 /D _DEBUG /D _CONSOLE /D _UNICODE /D UNICODE /Gm- /EHsc /RTC1 /MDd /GS /fp:precise /permissive- /Zc:wchar_t /Zc:forScope /Zc:inline /Fo"DEBUG\\" /Fd"DEBUG\VC141.PDB" /Gd /TP /analyze- /FC C:\USERS\ВИКТОР\УЧЕБА\TEAM_10\DISCRETE_MATH\DISCRETE_MATH\GCF_NN_N.CPP
^C:\USERS\ВИКТОР\УЧЕБА\TEAM_10\DISCRETE_MATH\DISCRETE_MATH\DIV_ZZ_Z.CPP
/c /ZI /JMC /nologo /W3 /WX- /diagnostics:classic /sdl /Od /Oy- /D WIN32 /D _DEBUG /D _CONSOLE /D _UNICODE /D UNICODE /Gm- /EHsc /RTC1 /MDd /GS /fp:precise /permissive- /Zc:wchar_t /Zc:forScope /Zc:inline /Fo"DEBUG\\" /Fd"DEBUG\VC141.PDB" /Gd /TP /analyze- /FC C:\USERS\ВИКТОР\УЧЕБА\TEAM_10\DISCRETE_MATH\DISCRETE_MATH\DIV_ZZ_Z.CPP
^C:\USERS\ВИКТОР\УЧЕБА\TEAM_10\DISCRETE_MATH\DISCRETE_MATH\ADD_ZZ_Z.CPP
/c /ZI /JMC /nologo /W3 /WX- /diagnostics:classic /sdl /Od /Oy- /D WIN32 /D _DEBUG /D _CONSOLE /D _UNICODE /D UNICODE /Gm- /EHsc /RTC1 /MDd /GS /fp:precise /permissive- /Zc:wchar_t /Zc:forScope /Zc:inline /Fo"DEBUG\\" /Fd"DEBUG\VC141.PDB" /Gd /TP /analyze- /FC C:\USERS\ВИКТОР\УЧЕБА\TEAM_10\DISCRETE_MATH\DISCRETE_MATH\ADD_ZZ_Z.CPP
^C:\USERS\ВИКТОР\УЧЕБА\TEAM_10\DISCRETE_MATH\DISCRETE_MATH\DISCRETE_MATH.CPP
/c /ZI /JMC /nologo /W3 /WX- /diagnostics:classic /sdl /Od /Oy- /D WIN32 /D _DEBUG /D _CONSOLE /D _UNICODE /D UNICODE /Gm- /EHsc /RTC1 /MDd /GS /fp:precise /permissive- /Zc:wchar_t /Zc:forScope /Zc:inline /Fo"DEBUG\\" /Fd"DEBUG\VC141.PDB" /Gd /TP /analyze- /FC C:\USERS\ВИКТОР\УЧЕБА\TEAM_10\DISCRETE_MATH\DISCRETE_MATH\DISCRETE_MATH.CPP
^C:\USERS\ВИКТОР\УЧЕБА\TEAM_10\DISCRETE_MATH\DISCRETE_MATH\MUL_NK_N.CPP
/c /ZI /JMC /nologo /W3 /WX- /diagnostics:classic /sdl /Od /Oy- /D WIN32 /D _DEBUG /D _CONSOLE /D _UNICODE /D UNICODE /Gm- /EHsc /RTC1 /MDd /GS /fp:precise /permissive- /Zc:wchar_t /Zc:forScope /Zc:inline /Fo"DEBUG\\" /Fd"DEBUG\VC141.PDB" /Gd /TP /analyze- /FC C:\USERS\ВИКТОР\УЧЕБА\TEAM_10\DISCRETE_MATH\DISCRETE_MATH\MUL_NK_N.CPP
^C:\USERS\ВИКТОР\УЧЕБА\TEAM_10\DISCRETE_MATH\DISCRETE_MATH\MUL_ZM_Z.CPP
/c /ZI /JMC /nologo /W3 /WX- /diagnostics:classic /sdl /Od /Oy- /D WIN32 /D _DEBUG /D _CONSOLE /D _UNICODE /D UNICODE /Gm- /EHsc /RTC1 /MDd /GS /fp:precise /permissive- /Zc:wchar_t /Zc:forScope /Zc:inline /Fo"DEBUG\\" /Fd"DEBUG\VC141.PDB" /Gd /TP /analyze- /FC C:\USERS\ВИКТОР\УЧЕБА\TEAM_10\DISCRETE_MATH\DISCRETE_MATH\MUL_ZM_Z.CPP
