^C:\USERS\ВИКТОР\УЧЕБА\TEAM_10\DISCRETE_MATH\DISCRETE_MATH\DEBUG\ADD_1N_N.OBJ|C:\USERS\ВИКТОР\УЧЕБА\TEAM_10\DISCRETE_MATH\DISCRETE_MATH\DEBUG\ADD_NN_N.OBJ|C:\USERS\ВИКТОР\УЧЕБА\TEAM_10\DISCRETE_MATH\DISCRETE_MATH\DEBUG\ADD_ZZ_Z.OBJ|C:\USERS\ВИКТОР\УЧЕБА\TEAM_10\DISCRETE_MATH\DISCRETE_MATH\DEBUG\COM_NN_D.OBJ|C:\USERS\ВИКТОР\УЧЕБА\TEAM_10\DISCRETE_MATH\DISCRETE_MATH\DEBUG\DISCRETE_MATH.OBJ|C:\USERS\ВИКТОР\УЧЕБА\TEAM_10\DISCRETE_MATH\DISCRETE_MATH\DEBUG\DIV_NN_N.OBJ|C:\USERS\ВИКТОР\УЧЕБА\TEAM_10\DISCRETE_MATH\DISCRETE_MATH\DEBUG\DIV_ZZ_Z.OBJ|C:\USERS\ВИКТОР\УЧЕБА\TEAM_10\DISCRETE_MATH\DISCRETE_MATH\DEBUG\GCF_NN_N.OBJ|C:\USERS\ВИКТОР\УЧЕБА\TEAM_10\DISCRETE_MATH\DISCRETE_MATH\DEBUG\LCM_NN_N.OBJ|C:\USERS\ВИКТОР\УЧЕБА\TEAM_10\DISCRETE_MATH\DISCRETE_MATH\DEBUG\MOD_NN_N.OBJ|C:\USERS\ВИКТОР\УЧЕБА\TEAM_10\DISCRETE_MATH\DISCRETE_MATH\DEBUG\MUL_ND_N.OBJ|C:\USERS\ВИКТОР\УЧЕБА\TEAM_10\DISCRETE_MATH\DISCRETE_MATH\DEBUG\MUL_NK_N.OBJ|C:\USERS\ВИКТОР\УЧЕБА\TEAM_10\DISCRETE_MATH\DISCRETE_MATH\DEBUG\MUL_NN_N.OBJ|C:\USERS\ВИКТОР\УЧЕБА\TEAM_10\DISCRETE_MATH\DISCRETE_MATH\DEBUG\MUL_ZM_Z.OBJ|C:\USERS\ВИКТОР\УЧЕБА\TEAM_10\DISCRETE_MATH\DISCRETE_MATH\DEBUG\MUL_ZZ_Z.OBJ|C:\USERS\ВИКТОР\УЧЕБА\TEAM_10\DISCRETE_MATH\DISCRETE_MATH\DEBUG\NZER_N_B.OBJ|C:\USERS\ВИКТОР\УЧЕБА\TEAM_10\DISCRETE_MATH\DISCRETE_MATH\DEBUG\SUB_NDN_N.OBJ|C:\USERS\ВИКТОР\УЧЕБА\TEAM_10\DISCRETE_MATH\DISCRETE_MATH\DEBUG\SUB_NN_N.OBJ|C:\USERS\ВИКТОР\УЧЕБА\TEAM_10\DISCRETE_MATH\DISCRETE_MATH\DEBUG\SUB_ZZ_Z.OBJ
C:\USERS\Виктор\Учеба\TEAM_10\DISCRETE_MATH\DEBUG\DISCRETE_MATH.EXE
C:\USERS\Виктор\Учеба\TEAM_10\DISCRETE_MATH\DEBUG\DISCRETE_MATH.ILK
C:\USERS\ВИКТОР\УЧЕБА\TEAM_10\DISCRETE_MATH\DEBUG\DISCRETE_MATH.PDB
